<?xml version="1.0" encoding="utf-8"?>
<!-- Generator: Adobe Illustrator 23.0.4, SVG Export Plug-In . SVG Version: 6.00 Build 0)  -->
<svg version="1.1" id="Layer_1" xmlns="http://www.w3.org/2000/svg" xmlns:xlink="http://www.w3.org/1999/xlink" x="0px" y="0px"
	 viewBox="0 0 108 108" enable-background="new 0 0 108 108" xml:space="preserve">
<title>Group 2</title>
<desc>Created with Sketch.</desc>
<g id="Page-1">
	<g id="Asset-2" transform="translate(95.000000, 139.000000)">
		<g id="Group-2" transform="translate(606.000000, 0.000000)">
			<circle id="Oval" fill="none" cx="-647" cy="-85" r="53"/>
			
				<circle fill="none" stroke="currentColor" stroke-width="2" stroke-linecap="round" stroke-linejoin="round" cx="-647" cy="-85" r="53"/>
			<g>
				
					<circle fill="none" stroke="currentColor" stroke-width="4" stroke-linecap="round" stroke-linejoin="round" cx="-647.4" cy="-77.4" r="4.9"/>
				<path id="Path" fill="none" stroke="currentColor" stroke-width="4" stroke-linecap="round" stroke-linejoin="round" d="M-642.9-80.8
					l11.9-8.9"/>
				<path fill="none" stroke="currentColor" stroke-width="4" stroke-linecap="round" stroke-linejoin="round" d="M-626.4-81.7
					c0.3,1.4,0.4,2.8,0.4,4.2h-4.9"/>
				<path fill="none" stroke="currentColor" stroke-width="4" stroke-linecap="round" stroke-linejoin="round" d="M-637.3-96.1
					c-6.5-3.4-14.3-3.1-20.6,0.7c-6.3,3.8-10.1,10.6-10.1,18h5"/>
				<path fill="none" stroke="currentColor" stroke-width="4" stroke-linecap="round" stroke-linejoin="round" d="M-647-97.2v4.9"/>
			</g>
		</g>
	</g>
</g>
</svg>
